[
[[[-59.572095, -80.040179], [-59.865849, -80.549657], [-60.159656, -81.000327], [-62.255393, -80.863178], [-64.488125, -80.921934], [-65.741666, -80.588827], [-65.741666, -80.549657], [-66.290031, -80.255773], [-64.037688, -80.294944], [-61.883246, -80.39287], [-61.138976, -79.981371], [-60.610119, -79.628679], [-59.572095, -80.040179]]], 
[[[-159.208184, -79.497059], [-161.127601, -79.634209], [-162.439847, -79.281465], [-163.027408, -78.928774], [-163.066604, -78.869966], [-163.712896, -78.595667], [-163.105801, -78.223338], [-161.245113, -78.380176], [-160.246208, -78.693645], [-159.482405, -79.046338], [-159.208184, -79.497059]]], 
[[[-45.154758, -78.04707], [-43.920828, -78.478103], [-43.48995, -79.08556], [-43.372438, -79.516645], [-43.333267, -80.026123], [-44.880537, -80.339644], [-46.506174, -80.594357], [-48.386421, -80.829485], [-50.482107, -81.025442], [-52.851988, -80.966685], [-54.164259, -80.633528], [-53.987991, -80.222028], [-51.853134, -79.94773], [-50.991326, -79.614623], [-50.364595, -79.183487], [-49.914131, -78.811209], [-49.306959, -78.458569], [-48.660616, -78.047018], [-48.660616, -78.047019], [-48.151396, -78.04707], [-46.662857, -77.831476], [-45.154758, -78.04707]]], 
[[[-121.211511, -73.50099], [-119.918851, -73.657725], [-118.724143, -73.481353], [-119.292119, -73.834097], [-120.232217, -74.08881], [-121.62283, -74.010468], [-122.621735, -73.657778], [-122.621735, -73.657777], [-122.406245, -73.324619], [-121.211511, -73.50099]]], 
[[[-125.559566, -73.481353], [-124.031882, -73.873268], [-124.619469, -73.834097], [-125.912181, -73.736118], [-127.28313, -73.461769], [-127.28313, -73.461768], [-126.558472, -73.246226], [-125.559566, -73.481353]]], 
[[[-98.98155, -71.933334], [-97.884743, -72.070535], [-96.787937, -71.952971], [-96.20035, -72.521205], [-96.983765, -72.442864], [-98.198083, -72.482035], [-99.432013, -72.442864], [-100.783455, -72.50162], [-101.801868, -72.305663], [-102.330725, -71.894164], [-101.703967, -71.717792], [-100.430919, -71.854993], [-98.98155, -71.933334]]], 
[[[-68.451346, -70.955823], [-68.333834, -71.406493], [-68.510128, -71.798407], [-68.784297, -72.170736], [-69.959471, -72.307885], [-71.075889, -72.503842], [-72.388134, -72.484257], [-71.8985, -72.092343], [-73.073622, -72.229492], [-74.19004, -72.366693], [-74.953895, -72.072757], [-75.012625, -71.661258], [-73.915819, -71.269345], [-73.915819, -71.269344], [-73.230331, -71.15178], [-72.074717, -71.190951], [-71.780962, -70.681473], [-71.72218, -70.309196], [-71.741791, -69.505782], [-71.173815, -69.035475], [-70.253252, -68.87874], [-69.724447, -69.251017], [-69.489422, -69.623346], [-69.058518, -70.074016], [-68.725541, -70.505153], [-68.451346, -70.955823]]], 
[[[-58.614143, -64.152467], [-59.045073, -64.36801], [-59.789342, -64.211223], [-60.611928, -64.309202], [-61.297416, -64.54433], [-62.0221, -64.799094], [-62.51176, -65.09303], [-62.648858, -65.484942], [-62.590128, -65.857219], [-62.120079, -66.190326], [-62.805567, -66.425505], [-63.74569, -66.503847], [-64.294106, -66.837004], [-64.881693, -67.150474], [-65.508425, -67.58161], [-65.665082, -67.953887], [-65.312545, -68.365335], [-64.783715, -68.678908], [-63.961103, -68.913984], [-63.1973, -69.227556], [-62.785955, -69.619419], [-62.570516, -69.991747], [-62.276736, -70.383661], [-61.806661, -70.716768], [-61.512906, -71.089045], [-61.375809, -72.010074], [-61.081977, -72.382351], [-61.003661, -72.774265], [-60.690269, -73.166179], [-60.827367, -73.695242], [-61.375809, -74.106742], [-61.96337, -74.439848], [-63.295201, -74.576997], [-63.74569, -74.92974], [-64.352836, -75.262847], [-65.860987, -75.635124], [-67.192818, -75.79191], [-68.446282, -76.007452], [-69.797724, -76.222995], [-70.600724, -76.634494], [-72.206776, -76.673665], [-73.969536, -76.634494], [-75.555977, -76.712887], [-77.24037, -76.712887], [-76.926979, -77.104802], [-75.399294, -77.28107], [-74.282876, -77.55542], [-73.656119, -77.908112], [-74.772536, -78.221633], [-76.4961, -78.123654], [-77.925858, -78.378419], [-77.984666, -78.789918], [-78.023785, -79.181833], [-76.848637, -79.514939], [-76.633224, -79.887216], [-75.360097, -80.259545], [-73.244852, -80.416331], [-71.442946, -80.69063], [-70.013163, -81.004151], [-68.191646, -81.317672], [-65.704279, -81.474458], [-63.25603, -81.748757], [-61.552026, -82.042692], [-59.691416, -82.37585], [-58.712121, -82.846106], [-58.222487, -83.218434], [-57.008117, -82.865691], [-55.362894, -82.571755], [-53.619771, -82.258235], [-51.543644, -82.003521], [-49.76135, -81.729171], [-47.273931, -81.709586], [-44.825708, -81.846735], [-42.808363, -82.081915], [-42.16202, -81.65083], [-40.771433, -81.356894], [-38.244818, -81.337309], [-36.26667, -81.121715], [-34.386397, -80.906172], [-32.310296, -80.769023], [-30.097098, -80.592651], [-28.549802, -80.337938], [-29.254901, -79.985195], [-29.685805, -79.632503], [-29.685805, -79.260226], [-31.624808, -79.299397], [-33.681324, -79.456132], [-35.639912, -79.456132], [-35.914107, -79.083855], [-35.77701, -78.339248], [-35.326546, -78.123654], [-33.896763, -77.888526], [-32.212369, -77.65345], [-30.998051, -77.359515], [-29.783732, -77.065579], [-28.882779, -76.673665], [-27.511752, -76.497345], [-26.160336, -76.360144], [-25.474822, -76.281803], [-23.927552, -76.24258], [-22.458598, -76.105431], [-21.224694, -75.909474], [-20.010375, -75.674346], [-18.913543, -75.439218], [-17.522982, -75.125698], [-16.641589, -74.79254], [-15.701491, -74.498604], [-15.40771, -74.106742], [-16.46532, -73.871614], [-16.112784, -73.460114], [-15.446855, -73.146542], [-14.408805, -72.950585], [-13.311973, -72.715457], [-12.293508, -72.401936], [-11.510067, -72.010074], [-11.020433, -71.539767], [-10.295774, -71.265416], [-9.101015, -71.324224], [-8.611381, -71.65733], [-7.416622, -71.696501], [-7.377451, -71.324224], [-6.868232, -70.93231], [-5.790985, -71.030289], [-5.536375, -71.402617], [-4.341667, -71.461373], [-3.048981, -71.285053], [-1.795492, -71.167438], [-0.659489, -71.226246], [-0.228637, -71.637745], [0.868195, -71.304639], [1.886686, -71.128267], [3.022638, -70.991118], [4.139055, -70.853917], [5.157546, -70.618789], [6.273912, -70.462055], [7.13572, -70.246512], [7.742866, -69.893769], [8.48711, -70.148534], [9.525135, -70.011333], [10.249845, -70.48164], [10.817821, -70.834332], [11.953824, -70.638375], [12.404287, -70.246512], [13.422778, -69.972162], [14.734998, -70.030918], [15.126757, -70.403247], [15.949342, -70.030918], [17.026589, -69.913354], [18.201711, -69.874183], [19.259373, -69.893769], [20.375739, -70.011333], [21.452985, -70.07014], [21.923034, -70.403247], [22.569403, -70.697182], [23.666184, -70.520811], [24.841357, -70.48164], [25.977309, -70.48164], [27.093726, -70.462055], [28.09258, -70.324854], [29.150242, -70.20729], [30.031583, -69.93294], [30.971733, -69.75662], [31.990172, -69.658641], [32.754053, -69.384291], [33.302443, -68.835642], [33.870419, -68.502588], [34.908495, -68.659271], [35.300202, -69.012014], [36.16201, -69.247142], [37.200035, -69.168748], [37.905108, -69.52144], [38.649404, -69.776205], [39.667894, -69.541077], [40.020431, -69.109941], [40.921358, -68.933621], [41.959434, -68.600514], [42.938702, -68.463313], [44.113876, -68.267408], [44.897291, -68.051866], [45.719928, -67.816738], [46.503343, -67.601196], [47.44344, -67.718759], [48.344419, -67.366068], [48.990736, -67.091718], [49.930885, -67.111303], [50.753471, -66.876175], [50.949325, -66.523484], [51.791547, -66.249133], [52.614133, -66.053176], [53.613038, -65.89639], [54.53355, -65.818049], [55.414943, -65.876805], [56.355041, -65.974783], [57.158093, -66.249133], [57.255968, -66.680218], [58.137361, -67.013324], [58.744508, -67.287675], [59.939318, -67.405239], [60.605221, -67.679589], [61.427806, -67.953887], [62.387489, -68.012695], [63.19049, -67.816738], [64.052349, -67.405239], [64.992447, -67.620729], [65.971715, -67.738345], [66.911864, -67.855909], [67.891133, -67.934302], [68.890038, -67.934302], [69.712624, -68.972791], [69.673453, -69.227556], [69.555941, -69.678226], [68.596258, -69.93294], [67.81274, -70.305268], [67.949889, -70.697182], [69.066307, -70.677545], [68.929157, -71.069459], [68.419989, -71.441788], [67.949889, -71.853287], [68.71377, -72.166808], [69.869307, -72.264787], [71.024895, -72.088415], [71.573285, -71.696501], [71.906288, -71.324224], [72.454627, -71.010703], [73.08141, -70.716768], [73.33602, -70.364024], [73.864877, -69.874183], [74.491557, -69.776205], [75.62756, -69.737034], [76.626465, -69.619419], [77.644904, -69.462684], [78.134539, -69.07077], [78.428371, -68.698441], [79.113859, -68.326216], [80.093127, -68.071503], [80.93535, -67.875546], [81.483792, -67.542388], [82.051767, -67.366068], [82.776426, -67.209282], [83.775331, -67.30726], [84.676206, -67.209282], [85.655527, -67.091718], [86.752359, -67.150474], [87.477017, -66.876175], [87.986289, -66.209911], [88.358411, -66.484261], [88.828408, -66.954568], [89.67063, -67.150474], [90.630365, -67.228867], [91.5901, -67.111303], [92.608539, -67.189696], [93.548637, -67.209282], [94.17542, -67.111303], [95.017591, -67.170111], [95.781472, -67.385653], [96.682399, -67.248504], [97.759646, -67.248504], [98.68021, -67.111303], [99.718182, -67.248504], [100.384188, -66.915346], [100.893356, -66.58224], [101.578896, -66.30789], [102.832411, -65.563284], [103.478676, -65.700485], [104.242557, -65.974783], [104.90846, -66.327527], [106.181561, -66.934931], [107.160881, -66.954568], [108.081393, -66.954568], [109.15864, -66.837004], [110.235835, -66.699804], [111.058472, -66.425505], [111.74396, -66.13157], [112.860378, -66.092347], [113.604673, -65.876805], [114.388088, -66.072762], [114.897308, -66.386283], [115.602381, -66.699804], [116.699161, -66.660633], [117.384701, -66.915346], [118.57946, -67.170111], [119.832924, -67.268089], [120.871, -67.189696], [121.654415, -66.876175], [122.320369, -66.562654], [123.221296, -66.484261], [124.122274, -66.621462], [125.160247, -66.719389], [126.100396, -66.562654], [127.001427, -66.562654], [127.882768, -66.660633], [128.80328, -66.758611], [129.704259, -66.58224], [130.781454, -66.425505], [131.799945, -66.386283], [132.935896, -66.386283], [133.85646, -66.288304], [134.757387, -66.209963], [135.031582, -65.72007], [135.070753, -65.308571], [135.697485, -65.582869], [135.873805, -66.033591], [136.206705, -66.44509], [136.618049, -66.778197], [137.460271, -66.954568], [138.596223, -66.895761], [139.908442, -66.876175], [140.809421, -66.817367], [142.121692, -66.817367], [143.061842, -66.797782], [144.374061, -66.837004], [145.490427, -66.915346], [146.195552, -67.228867], [145.999699, -67.601196], [146.646067, -67.895131], [147.723263, -68.130259], [148.839629, -68.385024], [150.132314, -68.561292], [151.483705, -68.71813], [152.502247, -68.874813], [153.638199, -68.894502], [154.284567, -68.561292], [155.165857, -68.835642], [155.92979, -69.149215], [156.811132, -69.384291], [158.025528, -69.482269], [159.181013, -69.599833], [159.670699, -69.991747], [160.80665, -70.226875], [161.570479, -70.579618], [162.686897, -70.736353], [163.842434, -70.716768], [164.919681, -70.775524], [166.11444, -70.755938], [167.309095, -70.834332], [168.425616, -70.971481], [169.463589, -71.20666], [170.501665, -71.402617], [171.20679, -71.696501], [171.089227, -72.088415], [170.560422, -72.441159], [170.109958, -72.891829], [169.75737, -73.24452], [169.287321, -73.65602], [167.975101, -73.812806], [167.387489, -74.165498], [166.094803, -74.38104], [165.644391, -74.772954], [164.958851, -75.145283], [164.234193, -75.458804], [163.822797, -75.870303], [163.568239, -76.24258], [163.47026, -76.693302], [163.489897, -77.065579], [164.057873, -77.457442], [164.273363, -77.82977], [164.743464, -78.182514], [166.604126, -78.319611], [166.995781, -78.750748], [165.193876, -78.907483], [163.666217, -79.123025], [161.766385, -79.162248], [160.924162, -79.730482], [160.747894, -80.200737], [160.316964, -80.573066], [159.788211, -80.945395], [161.120016, -81.278501], [161.629287, -81.690001], [162.490992, -82.062278], [163.705336, -82.395435], [165.095949, -82.708956], [166.604126, -83.022477], [168.895665, -83.335998], [169.404782, -83.825891], [172.283934, -84.041433], [172.477049, -84.117914], [173.224083, -84.41371], [175.985672, -84.158997], [178.277212, -84.472518], [180, -84.71338], [-179.942499, -84.721443], [-179.058677, -84.139412], [-177.256772, -84.452933], [-177.140807, -84.417941], [-176.084673, -84.099259], [-175.947235, -84.110449], [-175.829882, -84.117914], [-174.382503, -84.534323], [-173.116559, -84.117914], [-172.889106, -84.061019], [-169.951223, -83.884647], [-168.999989, -84.117914], [-168.530199, -84.23739], [-167.022099, -84.570497], [-164.182144, -84.82521], [-161.929775, -85.138731], [-158.07138, -85.37391], [-155.192253, -85.09956], [-150.942099, -85.295517], [-148.533073, -85.609038], [-145.888918, -85.315102], [-143.107718, -85.040752], [-142.892279, -84.570497], [-146.829068, -84.531274], [-150.060732, -84.296146], [-150.902928, -83.904232], [-153.586201, -83.68869], [-153.409907, -83.23802], [-153.037759, -82.82652], [-152.665637, -82.454192], [-152.861517, -82.042692], [-154.526299, -81.768394], [-155.29018, -81.41565], [-156.83745, -81.102129], [-154.408787, -81.160937], [-152.097662, -81.004151], [-150.648293, -81.337309], [-148.865998, -81.043373], [-147.22075, -80.671045], [-146.417749, -80.337938], [-146.770286, -79.926439], [-148.062947, -79.652089], [-149.531901, -79.358205], [-151.588416, -79.299397], [-153.390322, -79.162248], [-155.329376, -79.064269], [-155.975668, -78.69194], [-157.268302, -78.378419], [-158.051768, -78.025676], [-158.365134, -76.889207], [-157.875474, -76.987238], [-156.974573, -77.300759], [-155.329376, -77.202728], [-153.742832, -77.065579], [-152.920247, -77.496664], [-151.33378, -77.398737], [-150.00195, -77.183143], [-148.748486, -76.908845], [-147.612483, -76.575738], [-146.104409, -76.47776], [-146.143528, -76.105431], [-146.496091, -75.733154], [-146.20231, -75.380411], [-144.909624, -75.204039], [-144.322037, -75.537197], [-142.794353, -75.34124], [-141.638764, -75.086475], [-140.209007, -75.06689], [-138.85759, -74.968911], [-137.5062, -74.733783], [-136.428901, -74.518241], [-135.214583, -74.302699], [-134.431194, -74.361455], [-133.745654, -74.439848], [-132.257168, -74.302699], [-130.925311, -74.479019], [-129.554284, -74.459433], [-128.242038, -74.322284], [-126.890622, -74.420263], [-125.402082, -74.518241], [-124.011496, -74.479019], [-122.562152, -74.498604], [-121.073613, -74.518241], [-119.70256, -74.479019], [-118.684145, -74.185083], [-117.469801, -74.028348], [-116.216312, -74.243891], [-115.021552, -74.067519], [-113.944331, -73.714828], [-113.297988, -74.028348], [-112.945452, -74.38104], [-112.299083, -74.714198], [-111.261059, -74.420263], [-110.066325, -74.79254], [-108.714909, -74.910103], [-107.559346, -75.184454], [-106.149148, -75.125698], [-104.876074, -74.949326], [-103.367949, -74.988497], [-102.016507, -75.125698], [-100.645531, -75.302018], [-100.1167, -74.870933], [-100.763043, -74.537826], [-101.252703, -74.185083], [-102.545337, -74.106742], [-103.113313, -73.734413], [-103.328752, -73.362084], [-103.681289, -72.61753], [-102.917485, -72.754679], [-101.60524, -72.813436], [-100.312528, -72.754679], [-99.13738, -72.911414], [-98.118889, -73.20535], [-97.688037, -73.558041], [-96.336595, -73.616849], [-95.043961, -73.4797], [-93.672907, -73.283743], [-92.439003, -73.166179], [-91.420564, -73.401307], [-90.088733, -73.322914], [-89.226951, -72.558722], [-88.423951, -73.009393], [-87.268337, -73.185764], [-86.014822, -73.087786], [-85.192236, -73.4797], [-83.879991, -73.518871], [-82.665646, -73.636434], [-81.470913, -73.851977], [-80.687447, -73.4797], [-80.295791, -73.126956], [-79.296886, -73.518871], [-77.925858, -73.420892], [-76.907367, -73.636434], [-76.221879, -73.969541], [-74.890049, -73.871614], [-73.852024, -73.65602], [-72.833533, -73.401307], [-71.619215, -73.264157], [-70.209042, -73.146542], [-68.935916, -73.009393], [-67.956622, -72.79385], [-67.369061, -72.480329], [-67.134036, -72.049244], [-67.251548, -71.637745], [-67.56494, -71.245831], [-67.917477, -70.853917], [-68.230843, -70.462055], [-68.485452, -70.109311], [-68.544209, -69.717397], [-68.446282, -69.325535], [-67.976233, -68.953206], [-67.5845, -68.541707], [-67.427843, -68.149844], [-67.62367, -67.718759], [-67.741183, -67.326845], [-67.251548, -66.876175], [-66.703184, -66.58224], [-66.056815, -66.209963], [-65.371327, -65.89639], [-64.568276, -65.602506], [-64.176542, -65.171423], [-63.628152, -64.897073], [-63.001394, -64.642308], [-62.041686, -64.583552], [-61.414928, -64.270031], [-60.709855, -64.074074], [-59.887269, -63.95651], [-59.162585, -63.701745], [-58.594557, -63.388224], [-57.811143, -63.27066], [-57.223582, -63.525425], [-57.59573, -63.858532], [-58.614143, -64.152467]]]
]